More Julia and some Bayesian Inference
…
We'll use the KidIQ dataset for a quick example

register(DataDep(
    "kidiq",
    "Survey of adult American women and their respective children from 2007",
    "https://raw.githubusercontent.com/TuringLang/TuringGLM.jl/bbc9129fc2d1ff7a1026fe2189b6580303d5c9f5/data/kidiq.csv",
))

DataDep("kidiq", "https://raw.githubusercontent.com/TuringLang/TuringGLM.jl/bbc9129fc2d1ff7a1026fe2189b6580303d5c9f5/data/kidiq.csv", nothing, DataDeps.fetch_default, identity, "Survey of adult American women and their respective children from 2007")

fname = joinpath(datadep"kidiq", "kidiq.csv")
kidiq = DataFrame(CSV.File(fname))

434×4 DataFrame
 Row │ kid_score  mom_hs  mom_iq    mom_age 
     │ Int64      Int64   Float64   Int64   
─────┼──────────────────────────────────────
   1 │        65       1  121.118        27
   2 │        98       1   89.3619       25
   3 │        85       1  115.443        27
   4 │        83       1   99.4496       25
   5 │       115       1   92.7457       27
   6 │        98       0  107.902        18
   7 │        69       1  138.893        20
   8 │       106       1  125.145        23
   9 │       102       1   81.6195       24
  10 │        95       1   95.0731       19
  11 │        91       1   88.577        23
  ⋮  │     ⋮        ⋮        ⋮         ⋮
 425 │        42       1   78.2446       27
 426 │       102       1  127.676        29
 427 │       104       1  124.515        23
 428 │        59       0   80.464        21
 429 │        93       0   74.8607       25
 430 │        94       0   84.8774       21
 431 │        76       1   92.9904       23
 432 │        50       0   94.8597       24
 433 │        88       1   96.8566       21
 434 │        70       1   91.2533       25
                            413 rows omitted
…
The manager would like to determine the optimal number of traps (traps) that balances the lost revenue (R) such that complaints (complaints) generate with the all-in cost of maintaining the traps (TC).

Formally, we are interested in finding

\begin{equation*}
\arg \max_{\mathrm{traps} \in \mathbb{N}} \mathbb{E}_{\mathrm{complaints}} \big[ R \big( \mathrm{complaints}(\mathrm{traps}) \big) - \mathrm{TC}(\mathrm{traps}) \big]
\end{equation*}

The property manager would also, if possible, like to learn how these results generalize to buildings they haven't treated so they can understand the potential costs of pest control at buildings they are acquiring as well as for the rest of their building portfolio.

As the property manager has complete control over the number of traps set, the random variable contributing to this expectation is the number of complaints given the number of traps. We will model the number of complaints as a function of the number of traps.

DataFrame(CSV.File(joinpath("data", "pest_data.csv")))

120×14 DataFrame
 Row │ mus        building_id  wk_ind  date        traps    floors   sq_footag ⋯
     │ Float64    Int64        Int64   Date        Float64  Float64  Float64   ⋯
─────┼──────────────────────────────────────────────────────────────────────────
   1 │ 0.369134            37       1  2017-01-15      8.0      8.0            ⋯
   2 │ 0.359355            37       2  2017-02-14      8.0      8.0
   3 │ 0.281783            37       3  2017-03-16      9.0      8.0
   4 │ 0.129254            37       4  2017-04-15     10.0      8.0
   5 │ 0.452041            37       5  2017-05-15     11.0      8.0            ⋯
   6 │ 0.44213             37       6  2017-06-14     11.0      8.0
   7 │ 0.990865            37       7  2017-07-14     10.0      8.0
   8 │ 0.785977            37       8  2017-08-13     10.0      8.0
   9 │ 0.691797            37       9  2017-09-12      9.0      8.0            ⋯
  10 │ 0.480696            37      10  2017-10-12      9.0      8.0
  11 │ 0.562431            37      11  2017-11-11      8.0      8.0
  ⋮  │     ⋮           ⋮         ⋮         ⋮          ⋮        ⋮             ⋮ ⋱
 111 │ 0.542095            98       3  2017-03-16      7.0     13.0
 112 │ 0.866334            98       4  2017-04-15      6.0     13.0            ⋯
 113 │ 1.40571             98       5  2017-05-15      6.0     13.0
 114 │ 1.65598             98       6  2017-06-14      5.0     13.0
 115 │ 2.2483              98       7  2017-07-14      4.0     13.0
 116 │ 2.30359             98       8  2017-08-13      3.0     13.0            ⋯
 117 │ 2.253               98       9  2017-09-12      2.0     13.0
 118 │ 2.0419              98      10  2017-10-12      2.0     13.0
 119 │ 1.90705             98      11  2017-11-11      2.0     13.0
 120 │ 2.10317             98      12  2017-12-11      1.0     13.0            ⋯
                                                   8 columns and 99 rows omitted

3. Synthetic time-series

Or you can have a go at this synthetic time-series example

DataFrame(CSV.File(
    joinpath("data", "time-series.csv")
))

67×2 DataFrame
 Row │ t          y         
     │ Float64    Float64   
─────┼──────────────────────
   1 │ 0.0        -19.3009
   2 │ 0.0151515  -18.2195
   3 │ 0.030303   -17.931
   4 │ 0.0454545  -18.5562
   5 │ 0.0606061  -19.2006
   6 │ 0.0757576  -18.7376
   7 │ 0.0909091  -16.4586
   8 │ 0.106061   -15.0723
   9 │ 0.121212   -12.6583
  10 │ 0.136364   -11.1347
  11 │ 0.151515   -10.9626
  ⋮  │     ⋮          ⋮
  58 │ 0.863636    -6.70737
  59 │ 0.878788    -6.59501
  60 │ 0.893939    -7.91087
  61 │ 0.909091    -8.78053
  62 │ 0.924242    -9.81755
  63 │ 0.939394    -9.06206
  64 │ 0.954545    -7.48517
  65 │ 0.969697    -4.72118
  66 │ 0.984848    -1.85908
  67 │ 1.0          0.0
             46 rows omitted
…
